{
   "meta": {
      "version": 1,
      "name": "web_userapp",
      "type": "vuevitets",
      "module_name": "gitlab.com/ginfra/gservices/web_userapp",
      "serviceclass": "web_userapp",
      "invocationcmd": ""
   },
   "exposed": {
      "<<<web_port>>>":{
         "name": "Web port."
      }
   },
   "expect": {
      "web_port": {
         "description": "The port that will host the web server."
      }
   }
}
